module borg_backup_metrics

go 1.22.7

toolchain go1.23.2

require (
	github.com/prometheus/client_golang v1.20.5
	golang.org/x/oauth2 v0.24.0
	google.golang.org/api v0.209.0
)

require (
	cel.dev/expr v0.16.1 // indirect
	cloud.google.com/go v0.116.0 // indirect
	cloud.google.com/go/accessapproval v1.8.2 // indirect
	cloud.google.com/go/accesscontextmanager v1.9.2 // indirect
	cloud.google.com/go/aiplatform v1.68.0 // indirect
	cloud.google.com/go/analytics v0.25.2 // indirect
	cloud.google.com/go/apigateway v1.7.2 // indirect
	cloud.google.com/go/apigeeconnect v1.7.2 // indirect
	cloud.google.com/go/apigeeregistry v0.9.2 // indirect
	cloud.google.com/go/apikeys v0.6.0 // indirect
	cloud.google.com/go/appengine v1.9.2 // indirect
	cloud.google.com/go/area120 v0.9.2 // indirect
	cloud.google.com/go/artifactregistry v1.16.0 // indirect
	cloud.google.com/go/asset v1.20.3 // indirect
	cloud.google.com/go/assuredworkloads v1.12.2 // indirect
	cloud.google.com/go/auth v0.11.0 // indirect
	cloud.google.com/go/auth/oauth2adapt v0.2.6 // indirect
	cloud.google.com/go/automl v1.14.2 // indirect
	cloud.google.com/go/baremetalsolution v1.3.2 // indirect
	cloud.google.com/go/batch v1.11.2 // indirect
	cloud.google.com/go/beyondcorp v1.1.2 // indirect
	cloud.google.com/go/bigquery v1.64.0 // indirect
	cloud.google.com/go/bigtable v1.33.0 // indirect
	cloud.google.com/go/billing v1.19.2 // indirect
	cloud.google.com/go/binaryauthorization v1.9.2 // indirect
	cloud.google.com/go/certificatemanager v1.9.2 // indirect
	cloud.google.com/go/channel v1.19.1 // indirect
	cloud.google.com/go/cloudbuild v1.19.0 // indirect
	cloud.google.com/go/clouddms v1.8.2 // indirect
	cloud.google.com/go/cloudtasks v1.13.2 // indirect
	cloud.google.com/go/compute v1.28.3 // indirect
	cloud.google.com/go/compute/metadata v0.5.2 // indirect
	cloud.google.com/go/contactcenterinsights v1.15.1 // indirect
	cloud.google.com/go/container v1.41.0 // indirect
	cloud.google.com/go/containeranalysis v0.13.2 // indirect
	cloud.google.com/go/datacatalog v1.22.2 // indirect
	cloud.google.com/go/dataflow v0.10.2 // indirect
	cloud.google.com/go/dataform v0.10.2 // indirect
	cloud.google.com/go/datafusion v1.8.2 // indirect
	cloud.google.com/go/datalabeling v0.9.2 // indirect
	cloud.google.com/go/dataplex v1.19.2 // indirect
	cloud.google.com/go/dataproc v1.12.0 // indirect
	cloud.google.com/go/dataproc/v2 v2.10.0 // indirect
	cloud.google.com/go/dataqna v0.9.2 // indirect
	cloud.google.com/go/datastore v1.20.0 // indirect
	cloud.google.com/go/datastream v1.11.2 // indirect
	cloud.google.com/go/deploy v1.24.0 // indirect
	cloud.google.com/go/dialogflow v1.59.0 // indirect
	cloud.google.com/go/dlp v1.20.0 // indirect
	cloud.google.com/go/documentai v1.35.0 // indirect
	cloud.google.com/go/domains v0.10.2 // indirect
	cloud.google.com/go/edgecontainer v1.4.0 // indirect
	cloud.google.com/go/errorreporting v0.3.1 // indirect
	cloud.google.com/go/essentialcontacts v1.7.2 // indirect
	cloud.google.com/go/eventarc v1.15.0 // indirect
	cloud.google.com/go/filestore v1.9.2 // indirect
	cloud.google.com/go/firestore v1.17.0 // indirect
	cloud.google.com/go/functions v1.19.2 // indirect
	cloud.google.com/go/gaming v1.10.1 // indirect
	cloud.google.com/go/gkebackup v1.6.2 // indirect
	cloud.google.com/go/gkeconnect v0.11.2 // indirect
	cloud.google.com/go/gkehub v0.15.2 // indirect
	cloud.google.com/go/gkemulticloud v1.4.1 // indirect
	cloud.google.com/go/grafeas v0.3.11 // indirect
	cloud.google.com/go/gsuiteaddons v1.7.2 // indirect
	cloud.google.com/go/iam v1.2.2 // indirect
	cloud.google.com/go/iap v1.10.2 // indirect
	cloud.google.com/go/ids v1.5.2 // indirect
	cloud.google.com/go/iot v1.8.2 // indirect
	cloud.google.com/go/kms v1.20.1 // indirect
	cloud.google.com/go/language v1.14.2 // indirect
	cloud.google.com/go/lifesciences v0.10.2 // indirect
	cloud.google.com/go/logging v1.12.0 // indirect
	cloud.google.com/go/longrunning v0.6.2 // indirect
	cloud.google.com/go/managedidentities v1.7.2 // indirect
	cloud.google.com/go/maps v1.14.1 // indirect
	cloud.google.com/go/mediatranslation v0.9.2 // indirect
	cloud.google.com/go/memcache v1.11.2 // indirect
	cloud.google.com/go/metastore v1.14.2 // indirect
	cloud.google.com/go/monitoring v1.21.2 // indirect
	cloud.google.com/go/networkconnectivity v1.15.2 // indirect
	cloud.google.com/go/networkmanagement v1.15.0 // indirect
	cloud.google.com/go/networksecurity v0.10.2 // indirect
	cloud.google.com/go/notebooks v1.12.2 // indirect
	cloud.google.com/go/optimization v1.7.2 // indirect
	cloud.google.com/go/orchestration v1.11.1 // indirect
	cloud.google.com/go/orgpolicy v1.14.1 // indirect
	cloud.google.com/go/osconfig v1.14.2 // indirect
	cloud.google.com/go/oslogin v1.14.2 // indirect
	cloud.google.com/go/phishingprotection v0.9.2 // indirect
	cloud.google.com/go/policytroubleshooter v1.11.2 // indirect
	cloud.google.com/go/privatecatalog v0.10.2 // indirect
	cloud.google.com/go/pubsub v1.45.1 // indirect
	cloud.google.com/go/pubsublite v1.8.2 // indirect
	cloud.google.com/go/recaptchaenterprise v1.3.1 // indirect
	cloud.google.com/go/recaptchaenterprise/v2 v2.18.0 // indirect
	cloud.google.com/go/recommendationengine v0.9.2 // indirect
	cloud.google.com/go/recommender v1.13.2 // indirect
	cloud.google.com/go/redis v1.17.2 // indirect
	cloud.google.com/go/resourcemanager v1.10.2 // indirect
	cloud.google.com/go/resourcesettings v1.8.2 // indirect
	cloud.google.com/go/retail v1.19.1 // indirect
	cloud.google.com/go/run v1.6.1 // indirect
	cloud.google.com/go/scheduler v1.11.2 // indirect
	cloud.google.com/go/secretmanager v1.14.2 // indirect
	cloud.google.com/go/security v1.18.2 // indirect
	cloud.google.com/go/securitycenter v1.35.2 // indirect
	cloud.google.com/go/servicecontrol v1.11.1 // indirect
	cloud.google.com/go/servicedirectory v1.12.2 // indirect
	cloud.google.com/go/servicemanagement v1.8.0 // indirect
	cloud.google.com/go/serviceusage v1.6.0 // indirect
	cloud.google.com/go/shell v1.8.2 // indirect
	cloud.google.com/go/spanner v1.72.0 // indirect
	cloud.google.com/go/speech v1.25.2 // indirect
	cloud.google.com/go/storage v1.43.0 // indirect
	cloud.google.com/go/storagetransfer v1.11.2 // indirect
	cloud.google.com/go/talent v1.7.2 // indirect
	cloud.google.com/go/texttospeech v1.10.0 // indirect
	cloud.google.com/go/tpu v1.7.2 // indirect
	cloud.google.com/go/trace v1.11.2 // indirect
	cloud.google.com/go/translate v1.12.2 // indirect
	cloud.google.com/go/video v1.23.2 // indirect
	cloud.google.com/go/videointelligence v1.12.2 // indirect
	cloud.google.com/go/vision v1.2.0 // indirect
	cloud.google.com/go/vision/v2 v2.9.2 // indirect
	cloud.google.com/go/vmmigration v1.8.2 // indirect
	cloud.google.com/go/vmwareengine v1.3.2 // indirect
	cloud.google.com/go/vpcaccess v1.8.2 // indirect
	cloud.google.com/go/webrisk v1.10.2 // indirect
	cloud.google.com/go/websecurityscanner v1.7.2 // indirect
	cloud.google.com/go/workflows v1.13.2 // indirect
	dmitri.shuralyov.com/gpu/mtl v0.0.0-20190408044501-666a987793e9 // indirect
	gioui.org v0.0.0-20210308172011-57750fc8a0a6 // indirect
	git.sr.ht/~sbinet/gg v0.3.1 // indirect
	github.com/BurntSushi/toml v0.3.1 // indirect
	github.com/BurntSushi/xgb v0.0.0-20160522181843-27f122750802 // indirect
	github.com/GoogleCloudPlatform/grpc-gcp-go/grpcgcp v1.5.0 // indirect
	github.com/GoogleCloudPlatform/opentelemetry-operations-go/detectors/gcp v1.24.1 // indirect
	github.com/JohnCGriffin/overflow v0.0.0-20211019200055-46fa312c352c // indirect
	github.com/Knetic/govaluate v3.0.1-0.20171022003610-9aa49832a739+incompatible // indirect
	github.com/OneOfOne/xxhash v1.2.2 // indirect
	github.com/Shopify/sarama v1.19.0 // indirect
	github.com/Shopify/toxiproxy v2.1.4+incompatible // indirect
	github.com/VividCortex/gohistogram v1.0.0 // indirect
	github.com/afex/hystrix-go v0.0.0-20180502004556-fa1af6a1f4f5 // indirect
	github.com/ajstarks/deck v0.0.0-20200831202436-30c9fc6549a9 // indirect
	github.com/ajstarks/deck/generate v0.0.0-20210309230005-c3f852c02e19 // indirect
	github.com/ajstarks/svgo v0.0.0-20211024235047-1546f124cd8b // indirect
	github.com/alecthomas/assert/v2 v2.3.0 // indirect
	github.com/alecthomas/kingpin/v2 v2.4.0 // indirect
	github.com/alecthomas/participle/v2 v2.1.0 // indirect
	github.com/alecthomas/repr v0.2.0 // indirect
	github.com/alecthomas/template v0.0.0-20190718012654-fb15b899a751 // indirect
	github.com/alecthomas/units v0.0.0-20211218093645-b94a6e3cc137 // indirect
	github.com/andybalholm/brotli v1.0.5 // indirect
	github.com/antihax/optional v1.0.0 // indirect
	github.com/apache/arrow/go/v10 v10.0.1 // indirect
	github.com/apache/arrow/go/v11 v11.0.0 // indirect
	github.com/apache/arrow/go/v12 v12.0.1 // indirect
	github.com/apache/arrow/go/v14 v14.0.2 // indirect
	github.com/apache/arrow/go/v15 v15.0.2 // indirect
	github.com/apache/thrift v0.17.0 // indirect
	github.com/armon/circbuf v0.0.0-20150827004946-bbbad097214e // indirect
	github.com/armon/go-metrics v0.0.0-20180917152333-f0300d1749da // indirect
	github.com/armon/go-radix v0.0.0-20180808171621-7fddfc383310 // indirect
	github.com/aryann/difflib v0.0.0-20170710044230-e206f873d14a // indirect
	github.com/aws/aws-lambda-go v1.13.3 // indirect
	github.com/aws/aws-sdk-go v1.27.0 // indirect
	github.com/aws/aws-sdk-go-v2 v0.18.0 // indirect
	github.com/bazelbuild/rules_go v0.49.0 // indirect
	github.com/beorn7/perks v1.0.1 // indirect
	github.com/bgentry/speakeasy v0.1.0 // indirect
	github.com/boombuler/barcode v1.0.1 // indirect
	github.com/casbin/casbin/v2 v2.1.2 // indirect
	github.com/cenkalti/backoff v2.2.1+incompatible // indirect
	github.com/census-instrumentation/opencensus-proto v0.4.1 // indirect
	github.com/cespare/xxhash v1.1.0 // indirect
	github.com/cespare/xxhash/v2 v2.3.0 // indirect
	github.com/chzyer/logex v1.2.0 // indirect
	github.com/chzyer/readline v1.5.0 // indirect
	github.com/chzyer/test v0.0.0-20210722231415-061457976a23 // indirect
	github.com/clbanning/x2j v0.0.0-20191024224557-825249438eec // indirect
	github.com/client9/misspell v0.3.4 // indirect
	github.com/cncf/udpa/go v0.0.0-20220112060539-c52dc94e7fbe // indirect
	github.com/cncf/xds/go v0.0.0-20240905190251-b4127c9b8d78 // indirect
	github.com/cockroachdb/datadriven v0.0.0-20190809214429-80d97fb3cbaa // indirect
	github.com/codahale/hdrhistogram v0.0.0-20161010025455-3a0bb77429bd // indirect
	github.com/coreos/go-semver v0.2.0 // indirect
	github.com/coreos/go-systemd v0.0.0-20180511133405-39ca1b05acc7 // indirect
	github.com/coreos/pkg v0.0.0-20160727233714-3ac0863d7acf // indirect
	github.com/cpuguy83/go-md2man/v2 v2.0.0-20190314233015-f79a8a8ca69d // indirect
	github.com/creack/pty v1.1.9 // indirect
	github.com/davecgh/go-spew v1.1.1 // indirect
	github.com/dgrijalva/jwt-go v3.2.0+incompatible // indirect
	github.com/docopt/docopt-go v0.0.0-20180111231733-ee0de3bc6815 // indirect
	github.com/dustin/go-humanize v1.0.1 // indirect
	github.com/eapache/go-resiliency v1.1.0 // indirect
	github.com/eapache/go-xerial-snappy v0.0.0-20180814174437-776d5712da21 // indirect
	github.com/eapache/queue v1.1.0 // indirect
	github.com/edsrzf/mmap-go v1.0.0 // indirect
	github.com/envoyproxy/go-control-plane v0.13.0 // indirect
	github.com/envoyproxy/protoc-gen-validate v1.1.0 // indirect
	github.com/ettle/strcase v0.1.1 // indirect
	github.com/fatih/color v1.15.0 // indirect
	github.com/felixge/httpsnoop v1.0.4 // indirect
	github.com/fogleman/gg v1.3.0 // indirect
	github.com/franela/goblin v0.0.0-20200105215937-c9ffbefa60db // indirect
	github.com/franela/goreq v0.0.0-20171204163338-bcd34c9993f8 // indirect
	github.com/fsnotify/fsnotify v1.4.7 // indirect
	github.com/ghodss/yaml v1.0.0 // indirect
	github.com/go-fonts/dejavu v0.1.0 // indirect
	github.com/go-fonts/latin-modern v0.2.0 // indirect
	github.com/go-fonts/liberation v0.2.0 // indirect
	github.com/go-fonts/stix v0.1.0 // indirect
	github.com/go-gl/glfw v0.0.0-20190409004039-e6da0acd62b1 // indirect
	github.com/go-gl/glfw/v3.3/glfw v0.0.0-20200222043503-6f7a984d4dc4 // indirect
	github.com/go-kit/kit v0.10.0 // indirect
	github.com/go-kit/log v0.2.1 // indirect
	github.com/go-latex/latex v0.0.0-20210823091927-c0d11ff05a81 // indirect
	github.com/go-logfmt/logfmt v0.5.1 // indirect
	github.com/go-logr/logr v1.4.2 // indirect
	github.com/go-logr/stdr v1.2.2 // indirect
	github.com/go-pdf/fpdf v0.6.0 // indirect
	github.com/go-playground/assert/v2 v2.0.1 // indirect
	github.com/go-playground/locales v0.13.0 // indirect
	github.com/go-playground/universal-translator v0.17.0 // indirect
	github.com/go-playground/validator/v10 v10.4.1 // indirect
	github.com/go-sql-driver/mysql v1.4.0 // indirect
	github.com/go-stack/stack v1.8.0 // indirect
	github.com/goccy/go-json v0.10.2 // indirect
	github.com/goccy/go-yaml v1.11.0 // indirect
	github.com/gogo/googleapis v1.1.0 // indirect
	github.com/gogo/protobuf v1.3.2 // indirect
	github.com/golang/freetype v0.0.0-20170609003504-e2365dfdc4a0 // indirect
	github.com/golang/glog v1.2.2 // indirect
	github.com/golang/groupcache v0.0.0-20241129210726-2c02b8208cf8 // indirect
	github.com/golang/mock v1.7.0-rc.1 // indirect
	github.com/golang/protobuf v1.5.4 // indirect
	github.com/golang/snappy v0.0.4 // indirect
	github.com/google/btree v1.1.3 // indirect
	github.com/google/flatbuffers v23.5.26+incompatible // indirect
	github.com/google/go-cmp v0.6.0 // indirect
	github.com/google/go-pkcs11 v0.3.0 // indirect
	github.com/google/gofuzz v1.0.0 // indirect
	github.com/google/martian v2.1.0+incompatible // indirect
	github.com/google/martian/v3 v3.3.3 // indirect
	github.com/google/pprof v0.0.0-20221118152302-e6195bd50e26 // indirect
	github.com/google/renameio v0.1.0 // indirect
	github.com/google/s2a-go v0.1.8 // indirect
	github.com/google/uuid v1.6.0 // indirect
	github.com/googleapis/cloud-bigtable-clients-test v0.0.2 // indirect
	github.com/googleapis/enterprise-certificate-proxy v0.3.4 // indirect
	github.com/googleapis/gax-go/v2 v2.14.0 // indirect
	github.com/googleapis/go-type-adapters v1.0.0 // indirect
	github.com/googleapis/google-cloud-go-testing v0.0.0-20200911160855-bcd43fbb19e8 // indirect
	github.com/gopherjs/gopherjs v0.0.0-20181017120253-0766667cb4d1 // indirect
	github.com/gorilla/context v1.1.1 // indirect
	github.com/gorilla/mux v1.7.3 // indirect
	github.com/gorilla/websocket v0.0.0-20170926233335-4201258b820c // indirect
	github.com/grpc-ecosystem/go-grpc-middleware v1.0.1-0.20190118093823-f849b5445de4 // indirect
	github.com/grpc-ecosystem/go-grpc-prometheus v1.2.0 // indirect
	github.com/grpc-ecosystem/grpc-gateway v1.16.0 // indirect
	github.com/grpc-ecosystem/grpc-gateway/v2 v2.16.0 // indirect
	github.com/hamba/avro/v2 v2.17.2 // indirect
	github.com/hashicorp/consul/api v1.3.0 // indirect
	github.com/hashicorp/consul/sdk v0.3.0 // indirect
	github.com/hashicorp/errwrap v1.0.0 // indirect
	github.com/hashicorp/go-cleanhttp v0.5.1 // indirect
	github.com/hashicorp/go-immutable-radix v1.0.0 // indirect
	github.com/hashicorp/go-msgpack v0.5.3 // indirect
	github.com/hashicorp/go-multierror v1.0.0 // indirect
	github.com/hashicorp/go-rootcerts v1.0.0 // indirect
	github.com/hashicorp/go-sockaddr v1.0.0 // indirect
	github.com/hashicorp/go-syslog v1.0.0 // indirect
	github.com/hashicorp/go-uuid v1.0.1 // indirect
	github.com/hashicorp/go-version v1.2.0 // indirect
	github.com/hashicorp/go.net v0.0.1 // indirect
	github.com/hashicorp/golang-lru v0.5.1 // indirect
	github.com/hashicorp/logutils v1.0.0 // indirect
	github.com/hashicorp/mdns v1.0.0 // indirect
	github.com/hashicorp/memberlist v0.1.3 // indirect
	github.com/hashicorp/serf v0.8.2 // indirect
	github.com/hexops/gotextdiff v1.0.3 // indirect
	github.com/hpcloud/tail v1.0.0 // indirect
	github.com/hudl/fargo v1.3.0 // indirect
	github.com/iancoleman/strcase v0.3.0 // indirect
	github.com/ianlancetaylor/demangle v0.0.0-20220319035150-800ac71e25c2 // indirect
	github.com/inconshreveable/mousetrap v1.0.0 // indirect
	github.com/influxdata/influxdb1-client v0.0.0-20191209144304-8bf82d3c094d // indirect
	github.com/jmespath/go-jmespath v0.0.0-20180206201540-c2b33e8439af // indirect
	github.com/jonboulle/clockwork v0.1.0 // indirect
	github.com/jpillora/backoff v1.0.0 // indirect
	github.com/json-iterator/go v1.1.12 // indirect
	github.com/jstemmer/go-junit-report v0.9.1 // indirect
	github.com/jtolds/gls v4.20.0+incompatible // indirect
	github.com/julienschmidt/httprouter v1.3.0 // indirect
	github.com/jung-kurt/gofpdf v1.0.3-0.20190309125859-24315acbbda5 // indirect
	github.com/kballard/go-shellquote v0.0.0-20180428030007-95032a82bc51 // indirect
	github.com/kisielk/errcheck v1.5.0 // indirect
	github.com/kisielk/gotool v1.0.0 // indirect
	github.com/klauspost/asmfmt v1.3.2 // indirect
	github.com/klauspost/compress v1.17.11 // indirect
	github.com/klauspost/cpuid/v2 v2.2.5 // indirect
	github.com/konsorten/go-windows-terminal-sequences v1.0.3 // indirect
	github.com/kr/fs v0.1.0 // indirect
	github.com/kr/logfmt v0.0.0-20140226030751-b84e30acd515 // indirect
	github.com/kr/pretty v0.3.1 // indirect
	github.com/kr/pty v1.1.1 // indirect
	github.com/kr/text v0.2.0 // indirect
	github.com/kylelemons/godebug v1.1.0 // indirect
	github.com/leodido/go-urn v1.2.0 // indirect
	github.com/lightstep/lightstep-tracer-common/golang/gogo v0.0.0-20190605223551-bc2310a04743 // indirect
	github.com/lightstep/lightstep-tracer-go v0.18.1 // indirect
	github.com/lyft/protoc-gen-star v0.6.1 // indirect
	github.com/lyft/protoc-gen-star/v2 v2.0.4-0.20230330145011-496ad1ac90a4 // indirect
	github.com/lyft/protoc-gen-validate v0.0.13 // indirect
	github.com/mattn/go-colorable v0.1.13 // indirect
	github.com/mattn/go-isatty v0.0.19 // indirect
	github.com/mattn/go-runewidth v0.0.2 // indirect
	github.com/mattn/go-sqlite3 v1.14.16 // indirect
	github.com/matttproud/golang_protobuf_extensions v1.0.4 // indirect
	github.com/matttproud/golang_protobuf_extensions/v2 v2.0.0 // indirect
	github.com/miekg/dns v1.0.14 // indirect
	github.com/minio/asm2plan9s v0.0.0-20200509001527-cdd76441f9d8 // indirect
	github.com/minio/c2goasm v0.0.0-20190812172519-36a3d3bbc4f3 // indirect
	github.com/mitchellh/cli v1.0.0 // indirect
	github.com/mitchellh/go-homedir v1.0.0 // indirect
	github.com/mitchellh/go-testing-interface v1.0.0 // indirect
	github.com/mitchellh/gox v0.4.0 // indirect
	github.com/mitchellh/iochan v1.0.0 // indirect
	github.com/mitchellh/mapstructure v1.5.0 // indirect
	github.com/modern-go/concurrent v0.0.0-20180306012644-bacd9c7ef1dd // indirect
	github.com/modern-go/reflect2 v1.0.2 // indirect
	github.com/munnerz/goautoneg v0.0.0-20191010083416-a7dc8b61c822 // indirect
	github.com/mwitkow/go-conntrack v0.0.0-20190716064945-2f068394615f // indirect
	github.com/nats-io/jwt v0.3.2 // indirect
	github.com/nats-io/nats-server/v2 v2.1.2 // indirect
	github.com/nats-io/nats.go v1.9.1 // indirect
	github.com/nats-io/nkeys v0.1.3 // indirect
	github.com/nats-io/nuid v1.0.1 // indirect
	github.com/oklog/oklog v0.3.2 // indirect
	github.com/oklog/run v1.0.0 // indirect
	github.com/olekukonko/tablewriter v0.0.0-20170122224234-a0225b3f23b5 // indirect
	github.com/onsi/ginkgo v1.7.0 // indirect
	github.com/onsi/gomega v1.4.3 // indirect
	github.com/op/go-logging v0.0.0-20160315200505-970db520ece7 // indirect
	github.com/opentracing-contrib/go-observer v0.0.0-20170622124052-a52f23424492 // indirect
	github.com/opentracing/basictracer-go v1.0.0 // indirect
	github.com/opentracing/opentracing-go v1.1.0 // indirect
	github.com/openzipkin-contrib/zipkin-go-opentracing v0.4.5 // indirect
	github.com/openzipkin/zipkin-go v0.2.2 // indirect
	github.com/pact-foundation/pact-go v1.0.4 // indirect
	github.com/pascaldekloe/goe v0.0.0-20180627143212-57f6aae5913c // indirect
	github.com/pborman/uuid v1.2.0 // indirect
	github.com/performancecopilot/speed v3.0.0+incompatible // indirect
	github.com/phpdave11/gofpdf v1.4.2 // indirect
	github.com/phpdave11/gofpdi v1.0.13 // indirect
	github.com/pierrec/lz4 v2.0.5+incompatible // indirect
	github.com/pierrec/lz4/v4 v4.1.18 // indirect
	github.com/pkg/diff v0.0.0-20210226163009-20ebb0f2a09e // indirect
	github.com/pkg/errors v0.9.1 // indirect
	github.com/pkg/profile v1.2.1 // indirect
	github.com/pkg/sftp v1.13.1 // indirect
	github.com/planetscale/vtprotobuf v0.6.1-0.20240319094008-0393e58bdf10 // indirect
	github.com/pmezard/go-difflib v1.0.0 // indirect
	github.com/posener/complete v1.1.1 // indirect
	github.com/prometheus/client_model v0.6.1 // indirect
	github.com/prometheus/common v0.60.1 // indirect
	github.com/prometheus/procfs v0.15.1 // indirect
	github.com/rcrowley/go-metrics v0.0.0-20181016184325-3113b8401b8a // indirect
	github.com/remyoudompheng/bigfft v0.0.0-20230129092748-24d4a6f8daec // indirect
	github.com/rogpeppe/fastuuid v1.2.0 // indirect
	github.com/rogpeppe/go-internal v1.12.0 // indirect
	github.com/russross/blackfriday/v2 v2.0.1 // indirect
	github.com/ruudk/golang-pdf417 v0.0.0-20201230142125-a7e3863a1245 // indirect
	github.com/ryanuber/columnize v0.0.0-20160712163229-9b3edd62028f // indirect
	github.com/samuel/go-zookeeper v0.0.0-20190923202752-2cc03de413da // indirect
	github.com/sean-/seed v0.0.0-20170313163322-e2103e2c3529 // indirect
	github.com/shurcooL/sanitized_anchor_name v1.0.0 // indirect
	github.com/sirupsen/logrus v1.6.0 // indirect
	github.com/smartystreets/assertions v0.0.0-20180927180507-b2de0cb4f26d // indirect
	github.com/smartystreets/goconvey v1.6.4 // indirect
	github.com/soheilhy/cmux v0.1.4 // indirect
	github.com/sony/gobreaker v0.4.1 // indirect
	github.com/spaolacci/murmur3 v0.0.0-20180118202830-f09979ecbc72 // indirect
	github.com/spf13/afero v1.10.0 // indirect
	github.com/spf13/cobra v0.0.3 // indirect
	github.com/spf13/pflag v1.0.1 // indirect
	github.com/stoewer/go-strcase v1.3.0 // indirect
	github.com/streadway/amqp v0.0.0-20190827072141-edfb9018d271 // indirect
	github.com/streadway/handy v0.0.0-20190108123426-d5acb3125c2a // indirect
	github.com/stretchr/objx v0.5.2 // indirect
	github.com/stretchr/testify v1.9.0 // indirect
	github.com/substrait-io/substrait-go v0.4.2 // indirect
	github.com/tidwall/gjson v1.14.2 // indirect
	github.com/tidwall/match v1.1.1 // indirect
	github.com/tidwall/pretty v1.2.0 // indirect
	github.com/tidwall/sjson v1.2.5 // indirect
	github.com/tmc/grpc-websocket-proxy v0.0.0-20170815181823-89b8d40f7ca8 // indirect
	github.com/urfave/cli v1.22.1 // indirect
	github.com/xhit/go-str2duration v1.2.0 // indirect
	github.com/xhit/go-str2duration/v2 v2.1.0 // indirect
	github.com/xiang90/probing v0.0.0-20190116061207-43a291ad63a2 // indirect
	github.com/yuin/goldmark v1.4.13 // indirect
	github.com/zeebo/assert v1.3.0 // indirect
	github.com/zeebo/xxh3 v1.0.2 // indirect
	go.einride.tech/aip v0.68.0 // indirect
	go.etcd.io/bbolt v1.3.3 // indirect
	go.etcd.io/etcd v0.0.0-20191023171146-3cf2f69b5738 // indirect
	go.opencensus.io v0.24.0 // indirect
	go.opentelemetry.io/contrib/detectors/gcp v1.29.0 // indirect
	go.opentelemetry.io/contrib/instrumentation/google.golang.org/grpc/otelgrpc v0.54.0 // indirect
	go.opentelemetry.io/contrib/instrumentation/net/http/otelhttp v0.57.0 // indirect
	go.opentelemetry.io/otel v1.32.0 // indirect
	go.opentelemetry.io/otel/metric v1.32.0 // indirect
	go.opentelemetry.io/otel/sdk v1.29.0 // indirect
	go.opentelemetry.io/otel/sdk/metric v1.29.0 // indirect
	go.opentelemetry.io/otel/trace v1.32.0 // indirect
	go.opentelemetry.io/proto/otlp v1.0.0 // indirect
	go.uber.org/atomic v1.5.0 // indirect
	go.uber.org/goleak v1.3.0 // indirect
	go.uber.org/multierr v1.3.0 // indirect
	go.uber.org/tools v0.0.0-20190618225709-2cfd321de3ee // indirect
	go.uber.org/zap v1.13.0 // indirect
	golang.org/x/crypto v0.29.0 // indirect
	golang.org/x/exp v0.0.0-20231006140011-7918f672742d // indirect
	golang.org/x/image v0.0.0-20220302094943-723b81ca9867 // indirect
	golang.org/x/lint v0.0.0-20210508222113-6edffad5e616 // indirect
	golang.org/x/mobile v0.0.0-20190719004257-d2bd2a29d028 // indirect
	golang.org/x/mod v0.20.0 // indirect
	golang.org/x/net v0.31.0 // indirect
	golang.org/x/sync v0.9.0 // indirect
	golang.org/x/sys v0.27.0 // indirect
	golang.org/x/telemetry v0.0.0-20240521205824-bda55230c457 // indirect
	golang.org/x/term v0.26.0 // indirect
	golang.org/x/text v0.20.0 // indirect
	golang.org/x/time v0.8.0 // indirect
	golang.org/x/tools v0.24.0 // indirect
	golang.org/x/xerrors v0.0.0-20240903120638-7835f813f4da // indirect
	gonum.org/v1/gonum v0.12.0 // indirect
	gonum.org/v1/netlib v0.0.0-20190313105609-8cb42192e0e0 // indirect
	gonum.org/v1/plot v0.10.1 // indirect
	google.golang.org/appengine v1.6.8 // indirect
	google.golang.org/genproto v0.0.0-20241113202542-65e8d215514f // indirect
	google.golang.org/genproto/googleapis/api v0.0.0-20241104194629-dd2ea8efbc28 // indirect
	google.golang.org/genproto/googleapis/bytestream v0.0.0-20241113202542-65e8d215514f // indirect
	google.golang.org/genproto/googleapis/rpc v0.0.0-20241118233622-e639e219e697 // indirect
	google.golang.org/grpc v1.68.0 // indirect
	google.golang.org/grpc/cmd/protoc-gen-go-grpc v1.3.0 // indirect
	google.golang.org/protobuf v1.35.2 // indirect
	gopkg.in/alecthomas/kingpin.v2 v2.2.6 // indirect
	gopkg.in/check.v1 v1.0.0-20201130134442-10cb98267c6c // indirect
	gopkg.in/cheggaaa/pb.v1 v1.0.25 // indirect
	gopkg.in/errgo.v2 v2.1.0 // indirect
	gopkg.in/fsnotify.v1 v1.4.7 // indirect
	gopkg.in/gcfg.v1 v1.2.3 // indirect
	gopkg.in/resty.v1 v1.12.0 // indirect
	gopkg.in/tomb.v1 v1.0.0-20141024135613-dd632973f1e7 // indirect
	gopkg.in/warnings.v0 v0.1.2 // indirect
	gopkg.in/yaml.v2 v2.4.0 // indirect
	gopkg.in/yaml.v3 v3.0.1 // indirect
	gotest.tools/v3 v3.5.1 // indirect
	honnef.co/go/tools v0.1.3 // indirect
	lukechampine.com/uint128 v1.3.0 // indirect
	modernc.org/cc/v3 v3.40.0 // indirect
	modernc.org/ccgo/v3 v3.16.13 // indirect
	modernc.org/ccorpus v1.11.6 // indirect
	modernc.org/httpfs v1.0.6 // indirect
	modernc.org/libc v1.22.4 // indirect
	modernc.org/mathutil v1.5.0 // indirect
	modernc.org/memory v1.5.0 // indirect
	modernc.org/opt v0.1.3 // indirect
	modernc.org/sqlite v1.21.2 // indirect
	modernc.org/strutil v1.1.3 // indirect
	modernc.org/tcl v1.15.1 // indirect
	modernc.org/token v1.1.0 // indirect
	modernc.org/z v1.7.0 // indirect
	rsc.io/binaryregexp v0.2.0 // indirect
	rsc.io/pdf v0.1.1 // indirect
	rsc.io/quote/v3 v3.1.0 // indirect
	rsc.io/sampler v1.3.0 // indirect
	sigs.k8s.io/yaml v1.1.0 // indirect
	sourcegraph.com/sourcegraph/appdash v0.0.0-20190731080439-ebfcffb1b5c0 // indirect
)
